20201113-p8122_hw3_jsg2145
…
20201113-p8122_hw3_jsg2145

Jared Garfinkel

11/13/2020

Read in data

data = read_csv("./data/hW3 data.csv") %>% 
  janitor::clean_names()
data

## # A tibble: 614 x 11
##    x1    treat   age  educ black hispan married nodegree  re74  re75   re78
##    <chr> <dbl> <dbl> <dbl> <dbl>  <dbl>   <dbl>    <dbl> <dbl> <dbl>  <dbl>
##  1 NSW1      1    37    11     1      0       1        1     0     0  9930.
##  2 NSW2      1    22     9     0      1       0        1     0     0  3596.
##  3 NSW3      1    30    12     1      0       0        0     0     0 24909.
##  4 NSW4      1    27    11     1      0       0        1     0     0  7506.
##  5 NSW5      1    33     8     1      0       0        1     0     0   290.
##  6 NSW6      1    22     9     1      0       0        1     0     0  4056.
##  7 NSW7      1    23    12     1      0       0        0     0     0     0 
##  8 NSW8      1    32    11     1      0       0        1     0     0  8472.
##  9 NSW9      1    22    16     1      0       0        0     0     0  2164.
## 10 NSW10     1    33    12     0      0       1        0     0     0 12418.
## # ... with 604 more rows
…
